{
	"info": {
		"_postman_id": "1164273e-6260-4a0f-8c52-19a7efc92135",
		"name": "smev-tyk",
		"schema": "https://schema.getpostman.com/json/collection/v2.1.0/collection.json",
		"_exporter_id": "2135588"
	},
	"item": [
		{
			"name": "1. запрос адреса",
			"event": [
				{
					"listen": "prerequest",
					"script": {
						"exec": [
							"const oidcTokenUrl = pm.environment.get(\"OIDC_TOKEN_URL\");",
							"const authz = pm.variables.get(\"VALID_CLIENT_ID\") + \":\" + pm.variables.get(\"VALID_CLIENT_SECRET\");",
							"const encodedAuthz = CryptoJS.enc.Base64.stringify(CryptoJS.enc.Utf8.parse(authz));",
							"",
							"const getTokenRequest  = {",
							"  url: oidcTokenUrl,",
							"  method: 'POST',",
							"  header: {",
							"        'Accept': '*/*',",
							"        'Content-Type': 'application/x-www-form-urlencoded',",
							"        'Authorization': \"Basic \" + encodedAuthz",
							"  },",
							"  body: {",
							"    mode: 'urlencoded',",
							"    urlencoded: [",
							"        { key: \"grant_type\", value: \"client_credentials\" }",
							"    ]",
							"  }",
							"};",
							"",
							"var getToken = true;",
							"",
							"if (!pm.environment.get('access_token_expiry') || ",
							"    !pm.environment.get('access_token')) {",
							"    console.log('Token or expiry date are missing')",
							"} else if (pm.environment.get('access_token_expiry') <= (new Date()).getTime()) {",
							"    console.log('Token is expired')",
							"} else {",
							"    getToken = false;",
							"    console.log('Token and expiry date are all good');",
							"}",
							"",
							"if (getToken === true) {",
							"    pm.sendRequest(getTokenRequest, function (err, res) {",
							"        if (err === null) {",
							"            const responseJson = res.json();",
							"            console.log('Saving the token and expiry date')",
							"            ",
							"            pm.environment.set('access_token', responseJson.access_token)",
							"            var expiryDate = new Date();",
							"            expiryDate.setSeconds(expiryDate.getSeconds() + responseJson.expires_in)",
							"            pm.environment.set('access_token_expiry', expiryDate.getTime());",
							"        }",
							"        else {",
							"            console.log(err);",
							"        }",
							"    });",
							"}"
						],
						"type": "text/javascript"
					}
				}
			],
			"protocolProfileBehavior": {
				"disabledSystemHeaders": {
					"content-type": true
				}
			},
			"request": {
				"method": "POST",
				"header": [
					{
						"key": "SOAPAction",
						"value": "getStrictAddressZapros",
						"type": "text"
					},
					{
						"key": "Content-Type",
						"value": "text/xml",
						"type": "text"
					},
					{
						"key": "return",
						"value": "5.invalid.missing_attribute.yaml",
						"type": "text",
						"disabled": true
					}
				],
				"body": {
					"mode": "raw",
					"raw": "<SOAP-ENV:Envelope xmlns:SOAP-ENV=\"http://schemas.xmlsoap.org/soap/envelope/\"\n                   xmlns:wsse=\"http://docs.oasis-open.org/wss/2004/01/oasis-200401-wss-wssecurity-secext-1.0.xsd\"\n                   xmlns:wsu=\"http://docs.oasis-open.org/wss/2004/01/oasis-200401-wss-wssecurity-utility-1.0.xsd\">\n    <SOAP-ENV:Header>\n        <wsse:Security SOAP-ENV:actor=\"http://smev.gosuslugi.ru/actors/smev\">\n            <ds:Signature xmlns:ds=\"http://www.w3.org/2000/09/xmldsig#\">\n                <ds:SignedInfo>\n                    <ds:CanonicalizationMethod Algorithm=\"http://www.w3.org/2001/10/xml-exc-c14n#\"/>\n                    <ds:SignatureMethod Algorithm=\"http://www.w3.org/2001/04/xmldsig-more#gostr34102001-gostr3411\"/>\n                    <ds:Reference URI=\"#body\">\n                        <ds:Transforms>\n                            <ds:Transform Algorithm=\"http://www.w3.org/2000/09/xmldsig#enveloped-signature\"/>\n                            <ds:Transform Algorithm=\"http://www.w3.org/2001/10/xml-exc-c14n#\"/>\n                        </ds:Transforms>\n                        <ds:DigestMethod Algorithm=\"http://www.w3.org/2001/04/xmldsig-more#gostr3411\"/>\n                        <ds:DigestValue>dQtAAgcsi2Qr3gIZVmBKAQxRwhYQDIGgfrm2ZkYrF4Y=</ds:DigestValue>\n                    </ds:Reference>\n                </ds:SignedInfo>\n                <ds:SignatureValue>sfLwoDBnx1DonzLifvKUJZno1quOGyPg3OrwfZa3XOrHbF4SB7KE/+wK6lgmAwobZ5K7BG87cjE0\n                    /Bdez9Zx/A==\n                </ds:SignatureValue>\n                <ds:KeyInfo>\n                    <wsse:SecurityTokenReference>\n                        <wsse:Reference URI=\"#SenderCertificate\"/>\n                    </wsse:SecurityTokenReference>\n                </ds:KeyInfo>\n            </ds:Signature>\n            <wsu:Timestamp wsu:Id=\"Timestamp-EB8FBE82C1DF5A56DC13339715438201\">\n                <wsu:Created>2012-04-09T11:39:03Z</wsu:Created>\n                <wsu:Expires>2012-04-09T11:44:03Z</wsu:Expires>\n            </wsu:Timestamp>\n            <wsse:BinarySecurityToken\n                    EncodingType=\"http://docs.oasis-open.org/wss/2004/01/oasis-200401-wss-soap-message-security-1.0#Base64Binary\"\n                    ValueType=\"http://docs.oasis-open.org/wss/2004/01/oasis-200401-wss-x509-token-profile-1.0#X509v3\"\n                    wsu:Id=\"SenderCertificate\">\n                MIIDbzCCAx6gAwIBAgIKT0n0JwAAAAACbzAIBgYqhQMCAgMweTEXMBUGCSqGSIb3DQEJARYIY2FA\n                cnQucnUxCzAJBgNVBAYTAlJVMRUwEwYDVQQHDAzQnNC+0YHQutCy0LAxJDAiBgNVBAoMG9Ce0JDQ\n                niDQoNC+0YHRgtC10LvQtdC60L7QvDEUMBIGA1UEAxMLUlRLIFRlc3QgQ0EwHhcNMTEwNzE0MTEx\n                MzAwWhcNMTIwNzE0MTEyMjAwWjBSMQswCQYDVQQGEwJSVTFDMEEGA1UEAx46BCIENQRBBEIEPgQy\n                BEsEOQAgBEEENQRABEIEOAREBDgEOgQwBEIAIAQkBB0EIQAgBC0EHwAtBB4EEjBjMBwGBiqFAwIC\n                EzASBgcqhQMCAiQABgcqhQMCAh4BA0MABEBoEKpxwOzL7/rR/NzVm6UKW1IUROTXkzzx587jlJPf\n                Qa3PdOMhSVlEZcwEL9+qcJBFkszomWQ+rXmqcCFAHS2+o4IBqzCCAacwCwYDVR0PBAQDAgTwMCYG\n                A1UdJQQfMB0GByqFAwICIgYGCCsGAQUFBwMCBggrBgEFBQcDBDAdBgNVHQ4EFgQUxpxy+ssufWhK\n                y2NS1P/bqZchrGowHwYDVR0jBBgwFoAU3FNp0mLQ2/bwWr2CT1PAxNXwP1cwZgYDVR0fBF8wXTBb\n                oFmgV4ZVaHR0cDovL2QwMHBndWNlcnQwMS4wMC5lZ292LmxvY2FsL3JhL2NkcC9kYzUzNjlkMjYy\n                ZDBkYmY2ZjA1YWJkODI0ZjUzYzBjNGQ1ZjAzZjU3LmNybDCBkwYIKwYBBQUHAQEEgYYwgYMwOwYI\n                KwYBBQUHMAGGL2h0dHA6Ly9kMDBwZ3VjZXJ0MDEuMDAuZWdvdi5sb2NhbC9vY3NwL29jc3Auc3Jm\n                MEQGCCsGAQUFBzAChjhodHRwOi8vZDAwcGd1Y2VydDAxLjAwLmVnb3YubG9jYWwvcmEvY2RwL3Rl\n                c3RfY2FfcnRrLmNydDAyBgkrBgEEAYI3FQoEJTAjMAkGByqFAwICIgYwCgYIKwYBBQUHAwIwCgYI\n                KwYBBQUHAwQwCAYGKoUDAgIDA0EAYEEdhOpMor9QE22T4hUP1jJVnZ9aA0XgsxsjBzjhzfMwAI4g\n                L2YgBUvKQNa+iWVyg8u+BHHGCrVF9GyGXQIuzA==\n            </wsse:BinarySecurityToken>\n        </wsse:Security>\n    </SOAP-ENV:Header>\n    <SOAP-ENV:Body wsu:Id=\"body\">\n        <getStrictAddressZapros xmlns=\"http://ws.unisoft/\">\n            <smev:Message xmlns:smev=\"http://smev.gosuslugi.ru/rev111111\">\n                <smev:Sender>\n                    <smev:Code>TEST001001</smev:Code>\n                    <smev:Name>Тест</smev:Name>\n                </smev:Sender>\n                <smev:Recipient>\n                    <smev:Code>FNS001001</smev:Code>\n                    <smev:Name>ФНС России</smev:Name>\n                </smev:Recipient>\n                <smev:Originator>\n                    <smev:Code>TEST001001</smev:Code>\n                    <smev:Name>Тест</smev:Name>\n                </smev:Originator>\n                <smev:TypeCode>GSRV</smev:TypeCode>\n                <smev:Status>REQUEST</smev:Status>\n                <smev:Date>2011-11-11T11:11:11Z</smev:Date>\n                <smev:ExchangeType>3</smev:ExchangeType>\n                <smev:TestMsg/>\n            </smev:Message>\n            <smev:MessageData xmlns:smev=\"http://smev.gosuslugi.ru/rev111111\">\n                <smev:AppData wsu:Id=\"fns-AppData\">\n                    <Документ xmlns=\"http://ws.unisoft/getAddressZapros\" ВерсФорм=\"1.00\"\n                              ИдДок=\"7CA8688A-162E-449E-9130-C0C51EEB59B7\">\n                        <СвЮЛ ИННЮЛ=\"1234567890\" НаимЮЛ=\"тест\" ОГРН=\"1234567890123\" ОКОГУ=\"00000\"/>\n                        <ЗапросАдрес ИдЗапрос=\"B0CB0F88-73FA-40B6-B737-B8AA0A8BB0AA\">\n                            <ИдФИАС>0C5B2444-70A0-4932-980C-B4DC0D3F02B5</ИдФИАС>\n                        </ЗапросАдрес>\n                    </Документ>\n                </smev:AppData>\n            </smev:MessageData>\n        </getStrictAddressZapros>\n    </SOAP-ENV:Body>\n</SOAP-ENV:Envelope>\n",
					"options": {
						"raw": {
							"language": "xml"
						}
					}
				},
				"url": {
					"raw": "{{ gwUrl }}/relaxed",
					"host": [
						"{{ gwUrl }}"
					],
					"path": [
						"relaxed"
					]
				}
			},
			"response": []
		},
		{
			"name": "2. вызвать API без Access Token",
			"event": [
				{
					"listen": "prerequest",
					"script": {
						"exec": [
							""
						],
						"type": "text/javascript"
					}
				}
			],
			"protocolProfileBehavior": {
				"disabledSystemHeaders": {
					"content-type": true
				}
			},
			"request": {
				"auth": {
					"type": "noauth"
				},
				"method": "POST",
				"header": [
					{
						"key": "SOAPAction",
						"value": "getStrictAddressZapros",
						"type": "text"
					},
					{
						"key": "Content-Type",
						"value": "text/xml",
						"type": "text"
					},
					{
						"key": "return",
						"value": "5.invalid.missing_attribute.yaml",
						"type": "text",
						"disabled": true
					}
				],
				"body": {
					"mode": "raw",
					"raw": "<SOAP-ENV:Envelope xmlns:SOAP-ENV=\"http://schemas.xmlsoap.org/soap/envelope/\"\n                   xmlns:wsse=\"http://docs.oasis-open.org/wss/2004/01/oasis-200401-wss-wssecurity-secext-1.0.xsd\"\n                   xmlns:wsu=\"http://docs.oasis-open.org/wss/2004/01/oasis-200401-wss-wssecurity-utility-1.0.xsd\">\n    <SOAP-ENV:Header>\n        <wsse:Security SOAP-ENV:actor=\"http://smev.gosuslugi.ru/actors/smev\">\n            <ds:Signature xmlns:ds=\"http://www.w3.org/2000/09/xmldsig#\">\n                <ds:SignedInfo>\n                    <ds:CanonicalizationMethod Algorithm=\"http://www.w3.org/2001/10/xml-exc-c14n#\"/>\n                    <ds:SignatureMethod Algorithm=\"http://www.w3.org/2001/04/xmldsig-more#gostr34102001-gostr3411\"/>\n                    <ds:Reference URI=\"#body\">\n                        <ds:Transforms>\n                            <ds:Transform Algorithm=\"http://www.w3.org/2000/09/xmldsig#enveloped-signature\"/>\n                            <ds:Transform Algorithm=\"http://www.w3.org/2001/10/xml-exc-c14n#\"/>\n                        </ds:Transforms>\n                        <ds:DigestMethod Algorithm=\"http://www.w3.org/2001/04/xmldsig-more#gostr3411\"/>\n                        <ds:DigestValue>dQtAAgcsi2Qr3gIZVmBKAQxRwhYQDIGgfrm2ZkYrF4Y=</ds:DigestValue>\n                    </ds:Reference>\n                </ds:SignedInfo>\n                <ds:SignatureValue>sfLwoDBnx1DonzLifvKUJZno1quOGyPg3OrwfZa3XOrHbF4SB7KE/+wK6lgmAwobZ5K7BG87cjE0\n                    /Bdez9Zx/A==\n                </ds:SignatureValue>\n                <ds:KeyInfo>\n                    <wsse:SecurityTokenReference>\n                        <wsse:Reference URI=\"#SenderCertificate\"/>\n                    </wsse:SecurityTokenReference>\n                </ds:KeyInfo>\n            </ds:Signature>\n            <wsu:Timestamp wsu:Id=\"Timestamp-EB8FBE82C1DF5A56DC13339715438201\">\n                <wsu:Created>2012-04-09T11:39:03Z</wsu:Created>\n                <wsu:Expires>2012-04-09T11:44:03Z</wsu:Expires>\n            </wsu:Timestamp>\n            <wsse:BinarySecurityToken\n                    EncodingType=\"http://docs.oasis-open.org/wss/2004/01/oasis-200401-wss-soap-message-security-1.0#Base64Binary\"\n                    ValueType=\"http://docs.oasis-open.org/wss/2004/01/oasis-200401-wss-x509-token-profile-1.0#X509v3\"\n                    wsu:Id=\"SenderCertificate\">\n                MIIDbzCCAx6gAwIBAgIKT0n0JwAAAAACbzAIBgYqhQMCAgMweTEXMBUGCSqGSIb3DQEJARYIY2FA\n                cnQucnUxCzAJBgNVBAYTAlJVMRUwEwYDVQQHDAzQnNC+0YHQutCy0LAxJDAiBgNVBAoMG9Ce0JDQ\n                niDQoNC+0YHRgtC10LvQtdC60L7QvDEUMBIGA1UEAxMLUlRLIFRlc3QgQ0EwHhcNMTEwNzE0MTEx\n                MzAwWhcNMTIwNzE0MTEyMjAwWjBSMQswCQYDVQQGEwJSVTFDMEEGA1UEAx46BCIENQRBBEIEPgQy\n                BEsEOQAgBEEENQRABEIEOAREBDgEOgQwBEIAIAQkBB0EIQAgBC0EHwAtBB4EEjBjMBwGBiqFAwIC\n                EzASBgcqhQMCAiQABgcqhQMCAh4BA0MABEBoEKpxwOzL7/rR/NzVm6UKW1IUROTXkzzx587jlJPf\n                Qa3PdOMhSVlEZcwEL9+qcJBFkszomWQ+rXmqcCFAHS2+o4IBqzCCAacwCwYDVR0PBAQDAgTwMCYG\n                A1UdJQQfMB0GByqFAwICIgYGCCsGAQUFBwMCBggrBgEFBQcDBDAdBgNVHQ4EFgQUxpxy+ssufWhK\n                y2NS1P/bqZchrGowHwYDVR0jBBgwFoAU3FNp0mLQ2/bwWr2CT1PAxNXwP1cwZgYDVR0fBF8wXTBb\n                oFmgV4ZVaHR0cDovL2QwMHBndWNlcnQwMS4wMC5lZ292LmxvY2FsL3JhL2NkcC9kYzUzNjlkMjYy\n                ZDBkYmY2ZjA1YWJkODI0ZjUzYzBjNGQ1ZjAzZjU3LmNybDCBkwYIKwYBBQUHAQEEgYYwgYMwOwYI\n                KwYBBQUHMAGGL2h0dHA6Ly9kMDBwZ3VjZXJ0MDEuMDAuZWdvdi5sb2NhbC9vY3NwL29jc3Auc3Jm\n                MEQGCCsGAQUFBzAChjhodHRwOi8vZDAwcGd1Y2VydDAxLjAwLmVnb3YubG9jYWwvcmEvY2RwL3Rl\n                c3RfY2FfcnRrLmNydDAyBgkrBgEEAYI3FQoEJTAjMAkGByqFAwICIgYwCgYIKwYBBQUHAwIwCgYI\n                KwYBBQUHAwQwCAYGKoUDAgIDA0EAYEEdhOpMor9QE22T4hUP1jJVnZ9aA0XgsxsjBzjhzfMwAI4g\n                L2YgBUvKQNa+iWVyg8u+BHHGCrVF9GyGXQIuzA==\n            </wsse:BinarySecurityToken>\n        </wsse:Security>\n    </SOAP-ENV:Header>\n    <SOAP-ENV:Body wsu:Id=\"body\">\n        <getStrictAddressZapros xmlns=\"http://ws.unisoft/\">\n            <smev:Message xmlns:smev=\"http://smev.gosuslugi.ru/rev111111\">\n                <smev:Sender>\n                    <smev:Code>TEST001001</smev:Code>\n                    <smev:Name>Тест</smev:Name>\n                </smev:Sender>\n                <smev:Recipient>\n                    <smev:Code>FNS001001</smev:Code>\n                    <smev:Name>ФНС России</smev:Name>\n                </smev:Recipient>\n                <smev:Originator>\n                    <smev:Code>TEST001001</smev:Code>\n                    <smev:Name>Тест</smev:Name>\n                </smev:Originator>\n                <smev:TypeCode>GSRV</smev:TypeCode>\n                <smev:Status>REQUEST</smev:Status>\n                <smev:Date>2011-11-11T11:11:11Z</smev:Date>\n                <smev:ExchangeType>3</smev:ExchangeType>\n                <smev:TestMsg/>\n            </smev:Message>\n            <smev:MessageData xmlns:smev=\"http://smev.gosuslugi.ru/rev111111\">\n                <smev:AppData wsu:Id=\"fns-AppData\">\n                    <Документ xmlns=\"http://ws.unisoft/getAddressZapros\" ВерсФорм=\"1.00\"\n                              ИдДок=\"7CA8688A-162E-449E-9130-C0C51EEB59B7\">\n                        <СвЮЛ ИННЮЛ=\"1234567890\" НаимЮЛ=\"тест\" ОГРН=\"1234567890123\" ОКОГУ=\"00000\"/>\n                        <ЗапросАдрес ИдЗапрос=\"B0CB0F88-73FA-40B6-B737-B8AA0A8BB0AA\">\n                            <ИдФИАС>0C5B2444-70A0-4932-980C-B4DC0D3F02B5</ИдФИАС>\n                        </ЗапросАдрес>\n                    </Документ>\n                </smev:AppData>\n            </smev:MessageData>\n        </getStrictAddressZapros>\n    </SOAP-ENV:Body>\n</SOAP-ENV:Envelope>\n",
					"options": {
						"raw": {
							"language": "xml"
						}
					}
				},
				"url": {
					"raw": "{{ gwUrl }}/relaxed",
					"host": [
						"{{ gwUrl }}"
					],
					"path": [
						"relaxed"
					]
				}
			},
			"response": []
		},
		{
			"name": "3. исключить обязательный атрибут Envelope.body.getStrictAddressZapros.MessageData.AppData.Документ#ИдДок",
			"event": [
				{
					"listen": "prerequest",
					"script": {
						"exec": [
							"const oidcTokenUrl = pm.environment.get(\"OIDC_TOKEN_URL\");",
							"const authz = pm.variables.get(\"VALID_CLIENT_ID\") + \":\" + pm.variables.get(\"VALID_CLIENT_SECRET\");",
							"const encodedAuthz = CryptoJS.enc.Base64.stringify(CryptoJS.enc.Utf8.parse(authz));",
							"",
							"const getTokenRequest  = {",
							"  url: oidcTokenUrl,",
							"  method: 'POST',",
							"  header: {",
							"        'Accept': '*/*',",
							"        'Content-Type': 'application/x-www-form-urlencoded',",
							"        'Authorization': \"Basic \" + encodedAuthz",
							"  },",
							"  body: {",
							"    mode: 'urlencoded',",
							"    urlencoded: [",
							"        { key: \"grant_type\", value: \"client_credentials\" }",
							"    ]",
							"  }",
							"};",
							"",
							"var getToken = true;",
							"",
							"if (!pm.environment.get('access_token_expiry') || ",
							"    !pm.environment.get('access_token')) {",
							"    console.log('Token or expiry date are missing')",
							"} else if (pm.environment.get('access_token_expiry') <= (new Date()).getTime()) {",
							"    console.log('Token is expired')",
							"} else {",
							"    getToken = false;",
							"    console.log('Token and expiry date are all good');",
							"}",
							"",
							"if (getToken === true) {",
							"    pm.sendRequest(getTokenRequest, function (err, res) {",
							"        if (err === null) {",
							"            const responseJson = res.json();",
							"            console.log('Saving the token and expiry date')",
							"            ",
							"            pm.environment.set('access_token', responseJson.access_token)",
							"            var expiryDate = new Date();",
							"            expiryDate.setSeconds(expiryDate.getSeconds() + responseJson.expires_in)",
							"            pm.environment.set('access_token_expiry', expiryDate.getTime());",
							"        }",
							"        else {",
							"            console.log(err);",
							"        }",
							"    });",
							"}"
						],
						"type": "text/javascript"
					}
				}
			],
			"protocolProfileBehavior": {
				"disabledSystemHeaders": {
					"content-type": true
				}
			},
			"request": {
				"method": "POST",
				"header": [
					{
						"key": "SOAPAction",
						"value": "getStrictAddressZapros",
						"type": "text"
					},
					{
						"key": "Content-Type",
						"value": "text/xml",
						"type": "text"
					},
					{
						"key": "return",
						"value": "5.invalid.missing_attribute.yaml",
						"type": "text",
						"disabled": true
					}
				],
				"body": {
					"mode": "raw",
					"raw": "<SOAP-ENV:Envelope xmlns:SOAP-ENV=\"http://schemas.xmlsoap.org/soap/envelope/\"\n                   xmlns:wsse=\"http://docs.oasis-open.org/wss/2004/01/oasis-200401-wss-wssecurity-secext-1.0.xsd\"\n                   xmlns:wsu=\"http://docs.oasis-open.org/wss/2004/01/oasis-200401-wss-wssecurity-utility-1.0.xsd\">\n    <SOAP-ENV:Header>\n        <wsse:Security SOAP-ENV:actor=\"http://smev.gosuslugi.ru/actors/smev\">\n            <ds:Signature xmlns:ds=\"http://www.w3.org/2000/09/xmldsig#\">\n                <ds:SignedInfo>\n                    <ds:CanonicalizationMethod Algorithm=\"http://www.w3.org/2001/10/xml-exc-c14n#\"/>\n                    <ds:SignatureMethod Algorithm=\"http://www.w3.org/2001/04/xmldsig-more#gostr34102001-gostr3411\"/>\n                    <ds:Reference URI=\"#body\">\n                        <ds:Transforms>\n                            <ds:Transform Algorithm=\"http://www.w3.org/2000/09/xmldsig#enveloped-signature\"/>\n                            <ds:Transform Algorithm=\"http://www.w3.org/2001/10/xml-exc-c14n#\"/>\n                        </ds:Transforms>\n                        <ds:DigestMethod Algorithm=\"http://www.w3.org/2001/04/xmldsig-more#gostr3411\"/>\n                        <ds:DigestValue>dQtAAgcsi2Qr3gIZVmBKAQxRwhYQDIGgfrm2ZkYrF4Y=</ds:DigestValue>\n                    </ds:Reference>\n                </ds:SignedInfo>\n                <ds:SignatureValue>sfLwoDBnx1DonzLifvKUJZno1quOGyPg3OrwfZa3XOrHbF4SB7KE/+wK6lgmAwobZ5K7BG87cjE0\n                    /Bdez9Zx/A==\n                </ds:SignatureValue>\n                <ds:KeyInfo>\n                    <wsse:SecurityTokenReference>\n                        <wsse:Reference URI=\"#SenderCertificate\"/>\n                    </wsse:SecurityTokenReference>\n                </ds:KeyInfo>\n            </ds:Signature>\n            <wsu:Timestamp wsu:Id=\"Timestamp-EB8FBE82C1DF5A56DC13339715438201\">\n                <wsu:Created>2012-04-09T11:39:03Z</wsu:Created>\n                <wsu:Expires>2012-04-09T11:44:03Z</wsu:Expires>\n            </wsu:Timestamp>\n            <wsse:BinarySecurityToken\n                    EncodingType=\"http://docs.oasis-open.org/wss/2004/01/oasis-200401-wss-soap-message-security-1.0#Base64Binary\"\n                    ValueType=\"http://docs.oasis-open.org/wss/2004/01/oasis-200401-wss-x509-token-profile-1.0#X509v3\"\n                    wsu:Id=\"SenderCertificate\">\n                MIIDbzCCAx6gAwIBAgIKT0n0JwAAAAACbzAIBgYqhQMCAgMweTEXMBUGCSqGSIb3DQEJARYIY2FA\n                cnQucnUxCzAJBgNVBAYTAlJVMRUwEwYDVQQHDAzQnNC+0YHQutCy0LAxJDAiBgNVBAoMG9Ce0JDQ\n                niDQoNC+0YHRgtC10LvQtdC60L7QvDEUMBIGA1UEAxMLUlRLIFRlc3QgQ0EwHhcNMTEwNzE0MTEx\n                MzAwWhcNMTIwNzE0MTEyMjAwWjBSMQswCQYDVQQGEwJSVTFDMEEGA1UEAx46BCIENQRBBEIEPgQy\n                BEsEOQAgBEEENQRABEIEOAREBDgEOgQwBEIAIAQkBB0EIQAgBC0EHwAtBB4EEjBjMBwGBiqFAwIC\n                EzASBgcqhQMCAiQABgcqhQMCAh4BA0MABEBoEKpxwOzL7/rR/NzVm6UKW1IUROTXkzzx587jlJPf\n                Qa3PdOMhSVlEZcwEL9+qcJBFkszomWQ+rXmqcCFAHS2+o4IBqzCCAacwCwYDVR0PBAQDAgTwMCYG\n                A1UdJQQfMB0GByqFAwICIgYGCCsGAQUFBwMCBggrBgEFBQcDBDAdBgNVHQ4EFgQUxpxy+ssufWhK\n                y2NS1P/bqZchrGowHwYDVR0jBBgwFoAU3FNp0mLQ2/bwWr2CT1PAxNXwP1cwZgYDVR0fBF8wXTBb\n                oFmgV4ZVaHR0cDovL2QwMHBndWNlcnQwMS4wMC5lZ292LmxvY2FsL3JhL2NkcC9kYzUzNjlkMjYy\n                ZDBkYmY2ZjA1YWJkODI0ZjUzYzBjNGQ1ZjAzZjU3LmNybDCBkwYIKwYBBQUHAQEEgYYwgYMwOwYI\n                KwYBBQUHMAGGL2h0dHA6Ly9kMDBwZ3VjZXJ0MDEuMDAuZWdvdi5sb2NhbC9vY3NwL29jc3Auc3Jm\n                MEQGCCsGAQUFBzAChjhodHRwOi8vZDAwcGd1Y2VydDAxLjAwLmVnb3YubG9jYWwvcmEvY2RwL3Rl\n                c3RfY2FfcnRrLmNydDAyBgkrBgEEAYI3FQoEJTAjMAkGByqFAwICIgYwCgYIKwYBBQUHAwIwCgYI\n                KwYBBQUHAwQwCAYGKoUDAgIDA0EAYEEdhOpMor9QE22T4hUP1jJVnZ9aA0XgsxsjBzjhzfMwAI4g\n                L2YgBUvKQNa+iWVyg8u+BHHGCrVF9GyGXQIuzA==\n            </wsse:BinarySecurityToken>\n        </wsse:Security>\n    </SOAP-ENV:Header>\n    <SOAP-ENV:Body wsu:Id=\"body\">\n        <getStrictAddressZapros xmlns=\"http://ws.unisoft/\">\n            <smev:Message xmlns:smev=\"http://smev.gosuslugi.ru/rev111111\">\n                <smev:Sender>\n                    <smev:Code>TEST001001</smev:Code>\n                    <smev:Name>Тест</smev:Name>\n                </smev:Sender>\n                <smev:Recipient>\n                    <smev:Code>FNS001001</smev:Code>\n                    <smev:Name>ФНС России</smev:Name>\n                </smev:Recipient>\n                <smev:Originator>\n                    <smev:Code>TEST001001</smev:Code>\n                    <smev:Name>Тест</smev:Name>\n                </smev:Originator>\n                <smev:TypeCode>GSRV</smev:TypeCode>\n                <smev:Status>REQUEST</smev:Status>\n                <smev:Date>2011-11-11T11:11:11Z</smev:Date>\n                <smev:ExchangeType>3</smev:ExchangeType>\n                <smev:TestMsg/>\n            </smev:Message>\n            <smev:MessageData xmlns:smev=\"http://smev.gosuslugi.ru/rev111111\">\n                <smev:AppData wsu:Id=\"fns-AppData\">\n                    <Документ xmlns=\"http://ws.unisoft/getAddressZapros\" ВерсФорм=\"1.00\">\n                        <СвЮЛ ИННЮЛ=\"1234567890\" НаимЮЛ=\"тест\" ОГРН=\"1234567890123\" ОКОГУ=\"00000\"/>\n                        <ЗапросАдрес ИдЗапрос=\"B0CB0F88-73FA-40B6-B737-B8AA0A8BB0AA\">\n                            <ИдФИАС>0C5B2444-70A0-4932-980C-B4DC0D3F02B5</ИдФИАС>\n                        </ЗапросАдрес>\n                    </Документ>\n                </smev:AppData>\n            </smev:MessageData>\n        </getStrictAddressZapros>\n    </SOAP-ENV:Body>\n</SOAP-ENV:Envelope>\n",
					"options": {
						"raw": {
							"language": "xml"
						}
					}
				},
				"url": {
					"raw": "{{ gwUrl }}/relaxed",
					"host": [
						"{{ gwUrl }}"
					],
					"path": [
						"relaxed"
					]
				}
			},
			"response": []
		},
		{
			"name": "4. исключить обязательный элемент Envelope.body.getStrictAddressZapros.MessageData.AppData.Документ.ЗапросАдрес",
			"event": [
				{
					"listen": "prerequest",
					"script": {
						"exec": [
							"const oidcTokenUrl = pm.environment.get(\"OIDC_TOKEN_URL\");",
							"const authz = pm.variables.get(\"VALID_CLIENT_ID\") + \":\" + pm.variables.get(\"VALID_CLIENT_SECRET\");",
							"const encodedAuthz = CryptoJS.enc.Base64.stringify(CryptoJS.enc.Utf8.parse(authz));",
							"",
							"const getTokenRequest  = {",
							"  url: oidcTokenUrl,",
							"  method: 'POST',",
							"  header: {",
							"        'Accept': '*/*',",
							"        'Content-Type': 'application/x-www-form-urlencoded',",
							"        'Authorization': \"Basic \" + encodedAuthz",
							"  },",
							"  body: {",
							"    mode: 'urlencoded',",
							"    urlencoded: [",
							"        { key: \"grant_type\", value: \"client_credentials\" }",
							"    ]",
							"  }",
							"};",
							"",
							"var getToken = true;",
							"",
							"if (!pm.environment.get('access_token_expiry') || ",
							"    !pm.environment.get('access_token')) {",
							"    console.log('Token or expiry date are missing')",
							"} else if (pm.environment.get('access_token_expiry') <= (new Date()).getTime()) {",
							"    console.log('Token is expired')",
							"} else {",
							"    getToken = false;",
							"    console.log('Token and expiry date are all good');",
							"}",
							"",
							"if (getToken === true) {",
							"    pm.sendRequest(getTokenRequest, function (err, res) {",
							"        if (err === null) {",
							"            const responseJson = res.json();",
							"            console.log('Saving the token and expiry date')",
							"            ",
							"            pm.environment.set('access_token', responseJson.access_token)",
							"            var expiryDate = new Date();",
							"            expiryDate.setSeconds(expiryDate.getSeconds() + responseJson.expires_in)",
							"            pm.environment.set('access_token_expiry', expiryDate.getTime());",
							"        }",
							"        else {",
							"            console.log(err);",
							"        }",
							"    });",
							"}"
						],
						"type": "text/javascript"
					}
				}
			],
			"protocolProfileBehavior": {
				"disabledSystemHeaders": {
					"content-type": true
				}
			},
			"request": {
				"method": "POST",
				"header": [
					{
						"key": "SOAPAction",
						"value": "getStrictAddressZapros",
						"type": "text"
					},
					{
						"key": "Content-Type",
						"value": "text/xml",
						"type": "text"
					},
					{
						"key": "return",
						"value": "5.invalid.missing_attribute.yaml",
						"type": "text",
						"disabled": true
					}
				],
				"body": {
					"mode": "raw",
					"raw": "<SOAP-ENV:Envelope xmlns:SOAP-ENV=\"http://schemas.xmlsoap.org/soap/envelope/\"\n                   xmlns:wsse=\"http://docs.oasis-open.org/wss/2004/01/oasis-200401-wss-wssecurity-secext-1.0.xsd\"\n                   xmlns:wsu=\"http://docs.oasis-open.org/wss/2004/01/oasis-200401-wss-wssecurity-utility-1.0.xsd\">\n    <SOAP-ENV:Header>\n        <wsse:Security SOAP-ENV:actor=\"http://smev.gosuslugi.ru/actors/smev\">\n            <ds:Signature xmlns:ds=\"http://www.w3.org/2000/09/xmldsig#\">\n                <ds:SignedInfo>\n                    <ds:CanonicalizationMethod Algorithm=\"http://www.w3.org/2001/10/xml-exc-c14n#\"/>\n                    <ds:SignatureMethod Algorithm=\"http://www.w3.org/2001/04/xmldsig-more#gostr34102001-gostr3411\"/>\n                    <ds:Reference URI=\"#body\">\n                        <ds:Transforms>\n                            <ds:Transform Algorithm=\"http://www.w3.org/2000/09/xmldsig#enveloped-signature\"/>\n                            <ds:Transform Algorithm=\"http://www.w3.org/2001/10/xml-exc-c14n#\"/>\n                        </ds:Transforms>\n                        <ds:DigestMethod Algorithm=\"http://www.w3.org/2001/04/xmldsig-more#gostr3411\"/>\n                        <ds:DigestValue>dQtAAgcsi2Qr3gIZVmBKAQxRwhYQDIGgfrm2ZkYrF4Y=</ds:DigestValue>\n                    </ds:Reference>\n                </ds:SignedInfo>\n                <ds:SignatureValue>sfLwoDBnx1DonzLifvKUJZno1quOGyPg3OrwfZa3XOrHbF4SB7KE/+wK6lgmAwobZ5K7BG87cjE0\n                    /Bdez9Zx/A==\n                </ds:SignatureValue>\n                <ds:KeyInfo>\n                    <wsse:SecurityTokenReference>\n                        <wsse:Reference URI=\"#SenderCertificate\"/>\n                    </wsse:SecurityTokenReference>\n                </ds:KeyInfo>\n            </ds:Signature>\n            <wsu:Timestamp wsu:Id=\"Timestamp-EB8FBE82C1DF5A56DC13339715438201\">\n                <wsu:Created>2012-04-09T11:39:03Z</wsu:Created>\n                <wsu:Expires>2012-04-09T11:44:03Z</wsu:Expires>\n            </wsu:Timestamp>\n            <wsse:BinarySecurityToken\n                    EncodingType=\"http://docs.oasis-open.org/wss/2004/01/oasis-200401-wss-soap-message-security-1.0#Base64Binary\"\n                    ValueType=\"http://docs.oasis-open.org/wss/2004/01/oasis-200401-wss-x509-token-profile-1.0#X509v3\"\n                    wsu:Id=\"SenderCertificate\">\n                MIIDbzCCAx6gAwIBAgIKT0n0JwAAAAACbzAIBgYqhQMCAgMweTEXMBUGCSqGSIb3DQEJARYIY2FA\n                cnQucnUxCzAJBgNVBAYTAlJVMRUwEwYDVQQHDAzQnNC+0YHQutCy0LAxJDAiBgNVBAoMG9Ce0JDQ\n                niDQoNC+0YHRgtC10LvQtdC60L7QvDEUMBIGA1UEAxMLUlRLIFRlc3QgQ0EwHhcNMTEwNzE0MTEx\n                MzAwWhcNMTIwNzE0MTEyMjAwWjBSMQswCQYDVQQGEwJSVTFDMEEGA1UEAx46BCIENQRBBEIEPgQy\n                BEsEOQAgBEEENQRABEIEOAREBDgEOgQwBEIAIAQkBB0EIQAgBC0EHwAtBB4EEjBjMBwGBiqFAwIC\n                EzASBgcqhQMCAiQABgcqhQMCAh4BA0MABEBoEKpxwOzL7/rR/NzVm6UKW1IUROTXkzzx587jlJPf\n                Qa3PdOMhSVlEZcwEL9+qcJBFkszomWQ+rXmqcCFAHS2+o4IBqzCCAacwCwYDVR0PBAQDAgTwMCYG\n                A1UdJQQfMB0GByqFAwICIgYGCCsGAQUFBwMCBggrBgEFBQcDBDAdBgNVHQ4EFgQUxpxy+ssufWhK\n                y2NS1P/bqZchrGowHwYDVR0jBBgwFoAU3FNp0mLQ2/bwWr2CT1PAxNXwP1cwZgYDVR0fBF8wXTBb\n                oFmgV4ZVaHR0cDovL2QwMHBndWNlcnQwMS4wMC5lZ292LmxvY2FsL3JhL2NkcC9kYzUzNjlkMjYy\n                ZDBkYmY2ZjA1YWJkODI0ZjUzYzBjNGQ1ZjAzZjU3LmNybDCBkwYIKwYBBQUHAQEEgYYwgYMwOwYI\n                KwYBBQUHMAGGL2h0dHA6Ly9kMDBwZ3VjZXJ0MDEuMDAuZWdvdi5sb2NhbC9vY3NwL29jc3Auc3Jm\n                MEQGCCsGAQUFBzAChjhodHRwOi8vZDAwcGd1Y2VydDAxLjAwLmVnb3YubG9jYWwvcmEvY2RwL3Rl\n                c3RfY2FfcnRrLmNydDAyBgkrBgEEAYI3FQoEJTAjMAkGByqFAwICIgYwCgYIKwYBBQUHAwIwCgYI\n                KwYBBQUHAwQwCAYGKoUDAgIDA0EAYEEdhOpMor9QE22T4hUP1jJVnZ9aA0XgsxsjBzjhzfMwAI4g\n                L2YgBUvKQNa+iWVyg8u+BHHGCrVF9GyGXQIuzA==\n            </wsse:BinarySecurityToken>\n        </wsse:Security>\n    </SOAP-ENV:Header>\n    <SOAP-ENV:Body wsu:Id=\"body\">\n        <getStrictAddressZapros xmlns=\"http://ws.unisoft/\">\n            <smev:Message xmlns:smev=\"http://smev.gosuslugi.ru/rev111111\">\n                <smev:Sender>\n                    <smev:Code>TEST001001</smev:Code>\n                    <smev:Name>Тест</smev:Name>\n                </smev:Sender>\n                <smev:Recipient>\n                    <smev:Code>FNS001001</smev:Code>\n                    <smev:Name>ФНС России</smev:Name>\n                </smev:Recipient>\n                <smev:Originator>\n                    <smev:Code>TEST001001</smev:Code>\n                    <smev:Name>Тест</smev:Name>\n                </smev:Originator>\n                <smev:TypeCode>GSRV</smev:TypeCode>\n                <smev:Status>REQUEST</smev:Status>\n                <smev:Date>2011-11-11T11:11:11Z</smev:Date>\n                <smev:ExchangeType>3</smev:ExchangeType>\n                <smev:TestMsg/>\n            </smev:Message>\n            <smev:MessageData xmlns:smev=\"http://smev.gosuslugi.ru/rev111111\">\n                <smev:AppData wsu:Id=\"fns-AppData\">\n                    <Документ xmlns=\"http://ws.unisoft/getAddressZapros\" ВерсФорм=\"1.00\"\n                              ИдДок=\"7CA8688A-162E-449E-9130-C0C51EEB59B7\">\n                        <СвЮЛ ИННЮЛ=\"1234567890\" НаимЮЛ=\"тест\" ОГРН=\"1234567890123\" ОКОГУ=\"00000\"/>\n                    </Документ>\n                </smev:AppData>\n            </smev:MessageData>\n        </getStrictAddressZapros>\n    </SOAP-ENV:Body>\n</SOAP-ENV:Envelope>\n",
					"options": {
						"raw": {
							"language": "xml"
						}
					}
				},
				"url": {
					"raw": "{{ gwUrl }}/relaxed",
					"host": [
						"{{ gwUrl }}"
					],
					"path": [
						"relaxed"
					]
				}
			},
			"response": []
		},
		{
			"name": "5. ответ с кекорректным названием елемента Envelope.Body.Hello",
			"event": [
				{
					"listen": "prerequest",
					"script": {
						"exec": [
							"const oidcTokenUrl = pm.environment.get(\"OIDC_TOKEN_URL\");",
							"const authz = pm.variables.get(\"VALID_CLIENT_ID\") + \":\" + pm.variables.get(\"VALID_CLIENT_SECRET\");",
							"const encodedAuthz = CryptoJS.enc.Base64.stringify(CryptoJS.enc.Utf8.parse(authz));",
							"",
							"const getTokenRequest  = {",
							"  url: oidcTokenUrl,",
							"  method: 'POST',",
							"  header: {",
							"        'Accept': '*/*',",
							"        'Content-Type': 'application/x-www-form-urlencoded',",
							"        'Authorization': \"Basic \" + encodedAuthz",
							"  },",
							"  body: {",
							"    mode: 'urlencoded',",
							"    urlencoded: [",
							"        { key: \"grant_type\", value: \"client_credentials\" }",
							"    ]",
							"  }",
							"};",
							"",
							"var getToken = true;",
							"",
							"if (!pm.environment.get('access_token_expiry') || ",
							"    !pm.environment.get('access_token')) {",
							"    console.log('Token or expiry date are missing')",
							"} else if (pm.environment.get('access_token_expiry') <= (new Date()).getTime()) {",
							"    console.log('Token is expired')",
							"} else {",
							"    getToken = false;",
							"    console.log('Token and expiry date are all good');",
							"}",
							"",
							"if (getToken === true) {",
							"    pm.sendRequest(getTokenRequest, function (err, res) {",
							"        if (err === null) {",
							"            const responseJson = res.json();",
							"            console.log('Saving the token and expiry date')",
							"            ",
							"            pm.environment.set('access_token', responseJson.access_token)",
							"            var expiryDate = new Date();",
							"            expiryDate.setSeconds(expiryDate.getSeconds() + responseJson.expires_in)",
							"            pm.environment.set('access_token_expiry', expiryDate.getTime());",
							"        }",
							"        else {",
							"            console.log(err);",
							"        }",
							"    });",
							"}"
						],
						"type": "text/javascript"
					}
				}
			],
			"protocolProfileBehavior": {
				"disabledSystemHeaders": {
					"content-type": true
				}
			},
			"request": {
				"method": "POST",
				"header": [
					{
						"key": "SOAPAction",
						"value": "getStrictAddressZapros",
						"type": "text"
					},
					{
						"key": "Content-Type",
						"value": "text/xml",
						"type": "text"
					},
					{
						"key": "return",
						"value": "3.invalid.body_node_name.yaml",
						"type": "text"
					}
				],
				"body": {
					"mode": "raw",
					"raw": "<SOAP-ENV:Envelope xmlns:SOAP-ENV=\"http://schemas.xmlsoap.org/soap/envelope/\"\n                   xmlns:wsse=\"http://docs.oasis-open.org/wss/2004/01/oasis-200401-wss-wssecurity-secext-1.0.xsd\"\n                   xmlns:wsu=\"http://docs.oasis-open.org/wss/2004/01/oasis-200401-wss-wssecurity-utility-1.0.xsd\">\n    <SOAP-ENV:Header>\n        <wsse:Security SOAP-ENV:actor=\"http://smev.gosuslugi.ru/actors/smev\">\n            <ds:Signature xmlns:ds=\"http://www.w3.org/2000/09/xmldsig#\">\n                <ds:SignedInfo>\n                    <ds:CanonicalizationMethod Algorithm=\"http://www.w3.org/2001/10/xml-exc-c14n#\"/>\n                    <ds:SignatureMethod Algorithm=\"http://www.w3.org/2001/04/xmldsig-more#gostr34102001-gostr3411\"/>\n                    <ds:Reference URI=\"#body\">\n                        <ds:Transforms>\n                            <ds:Transform Algorithm=\"http://www.w3.org/2000/09/xmldsig#enveloped-signature\"/>\n                            <ds:Transform Algorithm=\"http://www.w3.org/2001/10/xml-exc-c14n#\"/>\n                        </ds:Transforms>\n                        <ds:DigestMethod Algorithm=\"http://www.w3.org/2001/04/xmldsig-more#gostr3411\"/>\n                        <ds:DigestValue>dQtAAgcsi2Qr3gIZVmBKAQxRwhYQDIGgfrm2ZkYrF4Y=</ds:DigestValue>\n                    </ds:Reference>\n                </ds:SignedInfo>\n                <ds:SignatureValue>sfLwoDBnx1DonzLifvKUJZno1quOGyPg3OrwfZa3XOrHbF4SB7KE/+wK6lgmAwobZ5K7BG87cjE0\n                    /Bdez9Zx/A==\n                </ds:SignatureValue>\n                <ds:KeyInfo>\n                    <wsse:SecurityTokenReference>\n                        <wsse:Reference URI=\"#SenderCertificate\"/>\n                    </wsse:SecurityTokenReference>\n                </ds:KeyInfo>\n            </ds:Signature>\n            <wsu:Timestamp wsu:Id=\"Timestamp-EB8FBE82C1DF5A56DC13339715438201\">\n                <wsu:Created>2012-04-09T11:39:03Z</wsu:Created>\n                <wsu:Expires>2012-04-09T11:44:03Z</wsu:Expires>\n            </wsu:Timestamp>\n            <wsse:BinarySecurityToken\n                    EncodingType=\"http://docs.oasis-open.org/wss/2004/01/oasis-200401-wss-soap-message-security-1.0#Base64Binary\"\n                    ValueType=\"http://docs.oasis-open.org/wss/2004/01/oasis-200401-wss-x509-token-profile-1.0#X509v3\"\n                    wsu:Id=\"SenderCertificate\">\n                MIIDbzCCAx6gAwIBAgIKT0n0JwAAAAACbzAIBgYqhQMCAgMweTEXMBUGCSqGSIb3DQEJARYIY2FA\n                cnQucnUxCzAJBgNVBAYTAlJVMRUwEwYDVQQHDAzQnNC+0YHQutCy0LAxJDAiBgNVBAoMG9Ce0JDQ\n                niDQoNC+0YHRgtC10LvQtdC60L7QvDEUMBIGA1UEAxMLUlRLIFRlc3QgQ0EwHhcNMTEwNzE0MTEx\n                MzAwWhcNMTIwNzE0MTEyMjAwWjBSMQswCQYDVQQGEwJSVTFDMEEGA1UEAx46BCIENQRBBEIEPgQy\n                BEsEOQAgBEEENQRABEIEOAREBDgEOgQwBEIAIAQkBB0EIQAgBC0EHwAtBB4EEjBjMBwGBiqFAwIC\n                EzASBgcqhQMCAiQABgcqhQMCAh4BA0MABEBoEKpxwOzL7/rR/NzVm6UKW1IUROTXkzzx587jlJPf\n                Qa3PdOMhSVlEZcwEL9+qcJBFkszomWQ+rXmqcCFAHS2+o4IBqzCCAacwCwYDVR0PBAQDAgTwMCYG\n                A1UdJQQfMB0GByqFAwICIgYGCCsGAQUFBwMCBggrBgEFBQcDBDAdBgNVHQ4EFgQUxpxy+ssufWhK\n                y2NS1P/bqZchrGowHwYDVR0jBBgwFoAU3FNp0mLQ2/bwWr2CT1PAxNXwP1cwZgYDVR0fBF8wXTBb\n                oFmgV4ZVaHR0cDovL2QwMHBndWNlcnQwMS4wMC5lZ292LmxvY2FsL3JhL2NkcC9kYzUzNjlkMjYy\n                ZDBkYmY2ZjA1YWJkODI0ZjUzYzBjNGQ1ZjAzZjU3LmNybDCBkwYIKwYBBQUHAQEEgYYwgYMwOwYI\n                KwYBBQUHMAGGL2h0dHA6Ly9kMDBwZ3VjZXJ0MDEuMDAuZWdvdi5sb2NhbC9vY3NwL29jc3Auc3Jm\n                MEQGCCsGAQUFBzAChjhodHRwOi8vZDAwcGd1Y2VydDAxLjAwLmVnb3YubG9jYWwvcmEvY2RwL3Rl\n                c3RfY2FfcnRrLmNydDAyBgkrBgEEAYI3FQoEJTAjMAkGByqFAwICIgYwCgYIKwYBBQUHAwIwCgYI\n                KwYBBQUHAwQwCAYGKoUDAgIDA0EAYEEdhOpMor9QE22T4hUP1jJVnZ9aA0XgsxsjBzjhzfMwAI4g\n                L2YgBUvKQNa+iWVyg8u+BHHGCrVF9GyGXQIuzA==\n            </wsse:BinarySecurityToken>\n        </wsse:Security>\n    </SOAP-ENV:Header>\n    <SOAP-ENV:Body wsu:Id=\"body\">\n        <getStrictAddressZapros xmlns=\"http://ws.unisoft/\">\n            <smev:Message xmlns:smev=\"http://smev.gosuslugi.ru/rev111111\">\n                <smev:Sender>\n                    <smev:Code>TEST001001</smev:Code>\n                    <smev:Name>Тест</smev:Name>\n                </smev:Sender>\n                <smev:Recipient>\n                    <smev:Code>FNS001001</smev:Code>\n                    <smev:Name>ФНС России</smev:Name>\n                </smev:Recipient>\n                <smev:Originator>\n                    <smev:Code>TEST001001</smev:Code>\n                    <smev:Name>Тест</smev:Name>\n                </smev:Originator>\n                <smev:TypeCode>GSRV</smev:TypeCode>\n                <smev:Status>REQUEST</smev:Status>\n                <smev:Date>2011-11-11T11:11:11Z</smev:Date>\n                <smev:ExchangeType>3</smev:ExchangeType>\n                <smev:TestMsg/>\n            </smev:Message>\n            <smev:MessageData xmlns:smev=\"http://smev.gosuslugi.ru/rev111111\">\n                <smev:AppData wsu:Id=\"fns-AppData\">\n                    <Документ xmlns=\"http://ws.unisoft/getAddressZapros\" ВерсФорм=\"1.00\"\n                              ИдДок=\"7CA8688A-162E-449E-9130-C0C51EEB59B7\">\n                        <СвЮЛ ИННЮЛ=\"1234567890\" НаимЮЛ=\"тест\" ОГРН=\"1234567890123\" ОКОГУ=\"00000\"/>\n                        <ЗапросАдрес ИдЗапрос=\"B0CB0F88-73FA-40B6-B737-B8AA0A8BB0AA\">\n                            <ИдФИАС>0C5B2444-70A0-4932-980C-B4DC0D3F02B5</ИдФИАС>\n                        </ЗапросАдрес>\n                    </Документ>\n                </smev:AppData>\n            </smev:MessageData>\n        </getStrictAddressZapros>\n    </SOAP-ENV:Body>\n</SOAP-ENV:Envelope>\n",
					"options": {
						"raw": {
							"language": "xml"
						}
					}
				},
				"url": {
					"raw": "{{ gwUrl }}/relaxed",
					"host": [
						"{{ gwUrl }}"
					],
					"path": [
						"relaxed"
					]
				}
			},
			"response": []
		},
		{
			"name": "6. ответ с некорректным атрибутом(длина) Envelope.Body.getStrictAddressZaprosResponse.MessageData.AppData.Адрес.ИдФиас",
			"event": [
				{
					"listen": "prerequest",
					"script": {
						"exec": [
							"const oidcTokenUrl = pm.environment.get(\"OIDC_TOKEN_URL\");",
							"const authz = pm.variables.get(\"VALID_CLIENT_ID\") + \":\" + pm.variables.get(\"VALID_CLIENT_SECRET\");",
							"const encodedAuthz = CryptoJS.enc.Base64.stringify(CryptoJS.enc.Utf8.parse(authz));",
							"",
							"const getTokenRequest  = {",
							"  url: oidcTokenUrl,",
							"  method: 'POST',",
							"  header: {",
							"        'Accept': '*/*',",
							"        'Content-Type': 'application/x-www-form-urlencoded',",
							"        'Authorization': \"Basic \" + encodedAuthz",
							"  },",
							"  body: {",
							"    mode: 'urlencoded',",
							"    urlencoded: [",
							"        { key: \"grant_type\", value: \"client_credentials\" }",
							"    ]",
							"  }",
							"};",
							"",
							"var getToken = true;",
							"",
							"if (!pm.environment.get('access_token_expiry') || ",
							"    !pm.environment.get('access_token')) {",
							"    console.log('Token or expiry date are missing')",
							"} else if (pm.environment.get('access_token_expiry') <= (new Date()).getTime()) {",
							"    console.log('Token is expired')",
							"} else {",
							"    getToken = false;",
							"    console.log('Token and expiry date are all good');",
							"}",
							"",
							"if (getToken === true) {",
							"    pm.sendRequest(getTokenRequest, function (err, res) {",
							"        if (err === null) {",
							"            const responseJson = res.json();",
							"            console.log('Saving the token and expiry date')",
							"            ",
							"            pm.environment.set('access_token', responseJson.access_token)",
							"            var expiryDate = new Date();",
							"            expiryDate.setSeconds(expiryDate.getSeconds() + responseJson.expires_in)",
							"            pm.environment.set('access_token_expiry', expiryDate.getTime());",
							"        }",
							"        else {",
							"            console.log(err);",
							"        }",
							"    });",
							"}"
						],
						"type": "text/javascript"
					}
				}
			],
			"protocolProfileBehavior": {
				"disabledSystemHeaders": {
					"content-type": true
				}
			},
			"request": {
				"method": "POST",
				"header": [
					{
						"key": "SOAPAction",
						"value": "getStrictAddressZapros",
						"type": "text"
					},
					{
						"key": "Content-Type",
						"value": "text/xml",
						"type": "text"
					},
					{
						"key": "return",
						"value": "4.invalid.idFias_restriction.yaml",
						"type": "text"
					}
				],
				"body": {
					"mode": "raw",
					"raw": "<SOAP-ENV:Envelope xmlns:SOAP-ENV=\"http://schemas.xmlsoap.org/soap/envelope/\"\n                   xmlns:wsse=\"http://docs.oasis-open.org/wss/2004/01/oasis-200401-wss-wssecurity-secext-1.0.xsd\"\n                   xmlns:wsu=\"http://docs.oasis-open.org/wss/2004/01/oasis-200401-wss-wssecurity-utility-1.0.xsd\">\n    <SOAP-ENV:Header>\n        <wsse:Security SOAP-ENV:actor=\"http://smev.gosuslugi.ru/actors/smev\">\n            <ds:Signature xmlns:ds=\"http://www.w3.org/2000/09/xmldsig#\">\n                <ds:SignedInfo>\n                    <ds:CanonicalizationMethod Algorithm=\"http://www.w3.org/2001/10/xml-exc-c14n#\"/>\n                    <ds:SignatureMethod Algorithm=\"http://www.w3.org/2001/04/xmldsig-more#gostr34102001-gostr3411\"/>\n                    <ds:Reference URI=\"#body\">\n                        <ds:Transforms>\n                            <ds:Transform Algorithm=\"http://www.w3.org/2000/09/xmldsig#enveloped-signature\"/>\n                            <ds:Transform Algorithm=\"http://www.w3.org/2001/10/xml-exc-c14n#\"/>\n                        </ds:Transforms>\n                        <ds:DigestMethod Algorithm=\"http://www.w3.org/2001/04/xmldsig-more#gostr3411\"/>\n                        <ds:DigestValue>dQtAAgcsi2Qr3gIZVmBKAQxRwhYQDIGgfrm2ZkYrF4Y=</ds:DigestValue>\n                    </ds:Reference>\n                </ds:SignedInfo>\n                <ds:SignatureValue>sfLwoDBnx1DonzLifvKUJZno1quOGyPg3OrwfZa3XOrHbF4SB7KE/+wK6lgmAwobZ5K7BG87cjE0\n                    /Bdez9Zx/A==\n                </ds:SignatureValue>\n                <ds:KeyInfo>\n                    <wsse:SecurityTokenReference>\n                        <wsse:Reference URI=\"#SenderCertificate\"/>\n                    </wsse:SecurityTokenReference>\n                </ds:KeyInfo>\n            </ds:Signature>\n            <wsu:Timestamp wsu:Id=\"Timestamp-EB8FBE82C1DF5A56DC13339715438201\">\n                <wsu:Created>2012-04-09T11:39:03Z</wsu:Created>\n                <wsu:Expires>2012-04-09T11:44:03Z</wsu:Expires>\n            </wsu:Timestamp>\n            <wsse:BinarySecurityToken\n                    EncodingType=\"http://docs.oasis-open.org/wss/2004/01/oasis-200401-wss-soap-message-security-1.0#Base64Binary\"\n                    ValueType=\"http://docs.oasis-open.org/wss/2004/01/oasis-200401-wss-x509-token-profile-1.0#X509v3\"\n                    wsu:Id=\"SenderCertificate\">\n                MIIDbzCCAx6gAwIBAgIKT0n0JwAAAAACbzAIBgYqhQMCAgMweTEXMBUGCSqGSIb3DQEJARYIY2FA\n                cnQucnUxCzAJBgNVBAYTAlJVMRUwEwYDVQQHDAzQnNC+0YHQutCy0LAxJDAiBgNVBAoMG9Ce0JDQ\n                niDQoNC+0YHRgtC10LvQtdC60L7QvDEUMBIGA1UEAxMLUlRLIFRlc3QgQ0EwHhcNMTEwNzE0MTEx\n                MzAwWhcNMTIwNzE0MTEyMjAwWjBSMQswCQYDVQQGEwJSVTFDMEEGA1UEAx46BCIENQRBBEIEPgQy\n                BEsEOQAgBEEENQRABEIEOAREBDgEOgQwBEIAIAQkBB0EIQAgBC0EHwAtBB4EEjBjMBwGBiqFAwIC\n                EzASBgcqhQMCAiQABgcqhQMCAh4BA0MABEBoEKpxwOzL7/rR/NzVm6UKW1IUROTXkzzx587jlJPf\n                Qa3PdOMhSVlEZcwEL9+qcJBFkszomWQ+rXmqcCFAHS2+o4IBqzCCAacwCwYDVR0PBAQDAgTwMCYG\n                A1UdJQQfMB0GByqFAwICIgYGCCsGAQUFBwMCBggrBgEFBQcDBDAdBgNVHQ4EFgQUxpxy+ssufWhK\n                y2NS1P/bqZchrGowHwYDVR0jBBgwFoAU3FNp0mLQ2/bwWr2CT1PAxNXwP1cwZgYDVR0fBF8wXTBb\n                oFmgV4ZVaHR0cDovL2QwMHBndWNlcnQwMS4wMC5lZ292LmxvY2FsL3JhL2NkcC9kYzUzNjlkMjYy\n                ZDBkYmY2ZjA1YWJkODI0ZjUzYzBjNGQ1ZjAzZjU3LmNybDCBkwYIKwYBBQUHAQEEgYYwgYMwOwYI\n                KwYBBQUHMAGGL2h0dHA6Ly9kMDBwZ3VjZXJ0MDEuMDAuZWdvdi5sb2NhbC9vY3NwL29jc3Auc3Jm\n                MEQGCCsGAQUFBzAChjhodHRwOi8vZDAwcGd1Y2VydDAxLjAwLmVnb3YubG9jYWwvcmEvY2RwL3Rl\n                c3RfY2FfcnRrLmNydDAyBgkrBgEEAYI3FQoEJTAjMAkGByqFAwICIgYwCgYIKwYBBQUHAwIwCgYI\n                KwYBBQUHAwQwCAYGKoUDAgIDA0EAYEEdhOpMor9QE22T4hUP1jJVnZ9aA0XgsxsjBzjhzfMwAI4g\n                L2YgBUvKQNa+iWVyg8u+BHHGCrVF9GyGXQIuzA==\n            </wsse:BinarySecurityToken>\n        </wsse:Security>\n    </SOAP-ENV:Header>\n    <SOAP-ENV:Body wsu:Id=\"body\">\n        <getStrictAddressZapros xmlns=\"http://ws.unisoft/\">\n            <smev:Message xmlns:smev=\"http://smev.gosuslugi.ru/rev111111\">\n                <smev:Sender>\n                    <smev:Code>TEST001001</smev:Code>\n                    <smev:Name>Тест</smev:Name>\n                </smev:Sender>\n                <smev:Recipient>\n                    <smev:Code>FNS001001</smev:Code>\n                    <smev:Name>ФНС России</smev:Name>\n                </smev:Recipient>\n                <smev:Originator>\n                    <smev:Code>TEST001001</smev:Code>\n                    <smev:Name>Тест</smev:Name>\n                </smev:Originator>\n                <smev:TypeCode>GSRV</smev:TypeCode>\n                <smev:Status>REQUEST</smev:Status>\n                <smev:Date>2011-11-11T11:11:11Z</smev:Date>\n                <smev:ExchangeType>3</smev:ExchangeType>\n                <smev:TestMsg/>\n            </smev:Message>\n            <smev:MessageData xmlns:smev=\"http://smev.gosuslugi.ru/rev111111\">\n                <smev:AppData wsu:Id=\"fns-AppData\">\n                    <Документ xmlns=\"http://ws.unisoft/getAddressZapros\" ВерсФорм=\"1.00\"\n                              ИдДок=\"7CA8688A-162E-449E-9130-C0C51EEB59B7\">\n                        <СвЮЛ ИННЮЛ=\"1234567890\" НаимЮЛ=\"тест\" ОГРН=\"1234567890123\" ОКОГУ=\"00000\"/>\n                        <ЗапросАдрес ИдЗапрос=\"B0CB0F88-73FA-40B6-B737-B8AA0A8BB0AA\">\n                            <ИдФИАС>0C5B2444-70A0-4932-980C-B4DC0D3F02B5</ИдФИАС>\n                        </ЗапросАдрес>\n                    </Документ>\n                </smev:AppData>\n            </smev:MessageData>\n        </getStrictAddressZapros>\n    </SOAP-ENV:Body>\n</SOAP-ENV:Envelope>\n",
					"options": {
						"raw": {
							"language": "xml"
						}
					}
				},
				"url": {
					"raw": "{{ gwUrl }}/relaxed",
					"host": [
						"{{ gwUrl }}"
					],
					"path": [
						"relaxed"
					]
				}
			},
			"response": []
		},
		{
			"name": "7. ответ с отсутствующим атрибутом Envelope.Body.getStrictAddressZaprosResponse.MessageData.AppData.Адрес.ИдЗапрос",
			"event": [
				{
					"listen": "prerequest",
					"script": {
						"exec": [
							"const oidcTokenUrl = pm.environment.get(\"OIDC_TOKEN_URL\");",
							"const authz = pm.variables.get(\"VALID_CLIENT_ID\") + \":\" + pm.variables.get(\"VALID_CLIENT_SECRET\");",
							"const encodedAuthz = CryptoJS.enc.Base64.stringify(CryptoJS.enc.Utf8.parse(authz));",
							"",
							"const getTokenRequest  = {",
							"  url: oidcTokenUrl,",
							"  method: 'POST',",
							"  header: {",
							"        'Accept': '*/*',",
							"        'Content-Type': 'application/x-www-form-urlencoded',",
							"        'Authorization': \"Basic \" + encodedAuthz",
							"  },",
							"  body: {",
							"    mode: 'urlencoded',",
							"    urlencoded: [",
							"        { key: \"grant_type\", value: \"client_credentials\" }",
							"    ]",
							"  }",
							"};",
							"",
							"var getToken = true;",
							"",
							"if (!pm.environment.get('access_token_expiry') || ",
							"    !pm.environment.get('access_token')) {",
							"    console.log('Token or expiry date are missing')",
							"} else if (pm.environment.get('access_token_expiry') <= (new Date()).getTime()) {",
							"    console.log('Token is expired')",
							"} else {",
							"    getToken = false;",
							"    console.log('Token and expiry date are all good');",
							"}",
							"",
							"if (getToken === true) {",
							"    pm.sendRequest(getTokenRequest, function (err, res) {",
							"        if (err === null) {",
							"            const responseJson = res.json();",
							"            console.log('Saving the token and expiry date')",
							"            ",
							"            pm.environment.set('access_token', responseJson.access_token)",
							"            var expiryDate = new Date();",
							"            expiryDate.setSeconds(expiryDate.getSeconds() + responseJson.expires_in)",
							"            pm.environment.set('access_token_expiry', expiryDate.getTime());",
							"        }",
							"        else {",
							"            console.log(err);",
							"        }",
							"    });",
							"}"
						],
						"type": "text/javascript"
					}
				}
			],
			"protocolProfileBehavior": {
				"disabledSystemHeaders": {
					"content-type": true
				}
			},
			"request": {
				"method": "POST",
				"header": [
					{
						"key": "SOAPAction",
						"value": "getStrictAddressZapros",
						"type": "text"
					},
					{
						"key": "Content-Type",
						"value": "text/xml",
						"type": "text"
					},
					{
						"key": "return",
						"value": "5.invalid.missing_attribute.yaml",
						"type": "text"
					}
				],
				"body": {
					"mode": "raw",
					"raw": "<SOAP-ENV:Envelope xmlns:SOAP-ENV=\"http://schemas.xmlsoap.org/soap/envelope/\"\n                   xmlns:wsse=\"http://docs.oasis-open.org/wss/2004/01/oasis-200401-wss-wssecurity-secext-1.0.xsd\"\n                   xmlns:wsu=\"http://docs.oasis-open.org/wss/2004/01/oasis-200401-wss-wssecurity-utility-1.0.xsd\">\n    <SOAP-ENV:Header>\n        <wsse:Security SOAP-ENV:actor=\"http://smev.gosuslugi.ru/actors/smev\">\n            <ds:Signature xmlns:ds=\"http://www.w3.org/2000/09/xmldsig#\">\n                <ds:SignedInfo>\n                    <ds:CanonicalizationMethod Algorithm=\"http://www.w3.org/2001/10/xml-exc-c14n#\"/>\n                    <ds:SignatureMethod Algorithm=\"http://www.w3.org/2001/04/xmldsig-more#gostr34102001-gostr3411\"/>\n                    <ds:Reference URI=\"#body\">\n                        <ds:Transforms>\n                            <ds:Transform Algorithm=\"http://www.w3.org/2000/09/xmldsig#enveloped-signature\"/>\n                            <ds:Transform Algorithm=\"http://www.w3.org/2001/10/xml-exc-c14n#\"/>\n                        </ds:Transforms>\n                        <ds:DigestMethod Algorithm=\"http://www.w3.org/2001/04/xmldsig-more#gostr3411\"/>\n                        <ds:DigestValue>dQtAAgcsi2Qr3gIZVmBKAQxRwhYQDIGgfrm2ZkYrF4Y=</ds:DigestValue>\n                    </ds:Reference>\n                </ds:SignedInfo>\n                <ds:SignatureValue>sfLwoDBnx1DonzLifvKUJZno1quOGyPg3OrwfZa3XOrHbF4SB7KE/+wK6lgmAwobZ5K7BG87cjE0\n                    /Bdez9Zx/A==\n                </ds:SignatureValue>\n                <ds:KeyInfo>\n                    <wsse:SecurityTokenReference>\n                        <wsse:Reference URI=\"#SenderCertificate\"/>\n                    </wsse:SecurityTokenReference>\n                </ds:KeyInfo>\n            </ds:Signature>\n            <wsu:Timestamp wsu:Id=\"Timestamp-EB8FBE82C1DF5A56DC13339715438201\">\n                <wsu:Created>2012-04-09T11:39:03Z</wsu:Created>\n                <wsu:Expires>2012-04-09T11:44:03Z</wsu:Expires>\n            </wsu:Timestamp>\n            <wsse:BinarySecurityToken\n                    EncodingType=\"http://docs.oasis-open.org/wss/2004/01/oasis-200401-wss-soap-message-security-1.0#Base64Binary\"\n                    ValueType=\"http://docs.oasis-open.org/wss/2004/01/oasis-200401-wss-x509-token-profile-1.0#X509v3\"\n                    wsu:Id=\"SenderCertificate\">\n                MIIDbzCCAx6gAwIBAgIKT0n0JwAAAAACbzAIBgYqhQMCAgMweTEXMBUGCSqGSIb3DQEJARYIY2FA\n                cnQucnUxCzAJBgNVBAYTAlJVMRUwEwYDVQQHDAzQnNC+0YHQutCy0LAxJDAiBgNVBAoMG9Ce0JDQ\n                niDQoNC+0YHRgtC10LvQtdC60L7QvDEUMBIGA1UEAxMLUlRLIFRlc3QgQ0EwHhcNMTEwNzE0MTEx\n                MzAwWhcNMTIwNzE0MTEyMjAwWjBSMQswCQYDVQQGEwJSVTFDMEEGA1UEAx46BCIENQRBBEIEPgQy\n                BEsEOQAgBEEENQRABEIEOAREBDgEOgQwBEIAIAQkBB0EIQAgBC0EHwAtBB4EEjBjMBwGBiqFAwIC\n                EzASBgcqhQMCAiQABgcqhQMCAh4BA0MABEBoEKpxwOzL7/rR/NzVm6UKW1IUROTXkzzx587jlJPf\n                Qa3PdOMhSVlEZcwEL9+qcJBFkszomWQ+rXmqcCFAHS2+o4IBqzCCAacwCwYDVR0PBAQDAgTwMCYG\n                A1UdJQQfMB0GByqFAwICIgYGCCsGAQUFBwMCBggrBgEFBQcDBDAdBgNVHQ4EFgQUxpxy+ssufWhK\n                y2NS1P/bqZchrGowHwYDVR0jBBgwFoAU3FNp0mLQ2/bwWr2CT1PAxNXwP1cwZgYDVR0fBF8wXTBb\n                oFmgV4ZVaHR0cDovL2QwMHBndWNlcnQwMS4wMC5lZ292LmxvY2FsL3JhL2NkcC9kYzUzNjlkMjYy\n                ZDBkYmY2ZjA1YWJkODI0ZjUzYzBjNGQ1ZjAzZjU3LmNybDCBkwYIKwYBBQUHAQEEgYYwgYMwOwYI\n                KwYBBQUHMAGGL2h0dHA6Ly9kMDBwZ3VjZXJ0MDEuMDAuZWdvdi5sb2NhbC9vY3NwL29jc3Auc3Jm\n                MEQGCCsGAQUFBzAChjhodHRwOi8vZDAwcGd1Y2VydDAxLjAwLmVnb3YubG9jYWwvcmEvY2RwL3Rl\n                c3RfY2FfcnRrLmNydDAyBgkrBgEEAYI3FQoEJTAjMAkGByqFAwICIgYwCgYIKwYBBQUHAwIwCgYI\n                KwYBBQUHAwQwCAYGKoUDAgIDA0EAYEEdhOpMor9QE22T4hUP1jJVnZ9aA0XgsxsjBzjhzfMwAI4g\n                L2YgBUvKQNa+iWVyg8u+BHHGCrVF9GyGXQIuzA==\n            </wsse:BinarySecurityToken>\n        </wsse:Security>\n    </SOAP-ENV:Header>\n    <SOAP-ENV:Body wsu:Id=\"body\">\n        <getStrictAddressZapros xmlns=\"http://ws.unisoft/\">\n            <smev:Message xmlns:smev=\"http://smev.gosuslugi.ru/rev111111\">\n                <smev:Sender>\n                    <smev:Code>TEST001001</smev:Code>\n                    <smev:Name>Тест</smev:Name>\n                </smev:Sender>\n                <smev:Recipient>\n                    <smev:Code>FNS001001</smev:Code>\n                    <smev:Name>ФНС России</smev:Name>\n                </smev:Recipient>\n                <smev:Originator>\n                    <smev:Code>TEST001001</smev:Code>\n                    <smev:Name>Тест</smev:Name>\n                </smev:Originator>\n                <smev:TypeCode>GSRV</smev:TypeCode>\n                <smev:Status>REQUEST</smev:Status>\n                <smev:Date>2011-11-11T11:11:11Z</smev:Date>\n                <smev:ExchangeType>3</smev:ExchangeType>\n                <smev:TestMsg/>\n            </smev:Message>\n            <smev:MessageData xmlns:smev=\"http://smev.gosuslugi.ru/rev111111\">\n                <smev:AppData wsu:Id=\"fns-AppData\">\n                    <Документ xmlns=\"http://ws.unisoft/getAddressZapros\" ВерсФорм=\"1.00\"\n                              ИдДок=\"7CA8688A-162E-449E-9130-C0C51EEB59B7\">\n                        <СвЮЛ ИННЮЛ=\"1234567890\" НаимЮЛ=\"тест\" ОГРН=\"1234567890123\" ОКОГУ=\"00000\"/>\n                        <ЗапросАдрес ИдЗапрос=\"B0CB0F88-73FA-40B6-B737-B8AA0A8BB0AA\">\n                            <ИдФИАС>0C5B2444-70A0-4932-980C-B4DC0D3F02B5</ИдФИАС>\n                        </ЗапросАдрес>\n                    </Документ>\n                </smev:AppData>\n            </smev:MessageData>\n        </getStrictAddressZapros>\n    </SOAP-ENV:Body>\n</SOAP-ENV:Envelope>\n",
					"options": {
						"raw": {
							"language": "xml"
						}
					}
				},
				"url": {
					"raw": "{{ gwUrl }}/relaxed",
					"host": [
						"{{ gwUrl }}"
					],
					"path": [
						"relaxed"
					]
				}
			},
			"response": []
		},
		{
			"name": "8. запрос c неизвестным заголовком Envelope.Header.Security",
			"event": [
				{
					"listen": "prerequest",
					"script": {
						"exec": [
							"const oidcTokenUrl = pm.environment.get(\"OIDC_TOKEN_URL\");",
							"const authz = pm.variables.get(\"VALID_CLIENT_ID\") + \":\" + pm.variables.get(\"VALID_CLIENT_SECRET\");",
							"const encodedAuthz = CryptoJS.enc.Base64.stringify(CryptoJS.enc.Utf8.parse(authz));",
							"",
							"const getTokenRequest  = {",
							"  url: oidcTokenUrl,",
							"  method: 'POST',",
							"  header: {",
							"        'Accept': '*/*',",
							"        'Content-Type': 'application/x-www-form-urlencoded',",
							"        'Authorization': \"Basic \" + encodedAuthz",
							"  },",
							"  body: {",
							"    mode: 'urlencoded',",
							"    urlencoded: [",
							"        { key: \"grant_type\", value: \"client_credentials\" }",
							"    ]",
							"  }",
							"};",
							"",
							"var getToken = true;",
							"",
							"if (!pm.environment.get('access_token_expiry') || ",
							"    !pm.environment.get('access_token')) {",
							"    console.log('Token or expiry date are missing')",
							"} else if (pm.environment.get('access_token_expiry') <= (new Date()).getTime()) {",
							"    console.log('Token is expired')",
							"} else {",
							"    getToken = false;",
							"    console.log('Token and expiry date are all good');",
							"}",
							"",
							"if (getToken === true) {",
							"    pm.sendRequest(getTokenRequest, function (err, res) {",
							"        if (err === null) {",
							"            const responseJson = res.json();",
							"            console.log('Saving the token and expiry date')",
							"            ",
							"            pm.environment.set('access_token', responseJson.access_token)",
							"            var expiryDate = new Date();",
							"            expiryDate.setSeconds(expiryDate.getSeconds() + responseJson.expires_in)",
							"            pm.environment.set('access_token_expiry', expiryDate.getTime());",
							"        }",
							"        else {",
							"            console.log(err);",
							"        }",
							"    });",
							"}"
						],
						"type": "text/javascript"
					}
				}
			],
			"protocolProfileBehavior": {
				"disabledSystemHeaders": {
					"content-type": true
				}
			},
			"request": {
				"method": "POST",
				"header": [
					{
						"key": "SOAPAction",
						"value": "getStrictAddressZapros",
						"type": "text"
					},
					{
						"key": "Content-Type",
						"value": "text/xml",
						"type": "text"
					},
					{
						"key": "return",
						"value": "5.invalid.missing_attribute.yaml",
						"type": "text",
						"disabled": true
					}
				],
				"body": {
					"mode": "raw",
					"raw": "<SOAP-ENV:Envelope xmlns:SOAP-ENV=\"http://schemas.xmlsoap.org/soap/envelope/\"\n                   xmlns:wsse=\"http://docs.oasis-open.org/wss/2004/01/oasis-200401-wss-wssecurity-secext-1.0.xsd\"\n                   xmlns:wsu=\"http://docs.oasis-open.org/wss/2004/01/oasis-200401-wss-wssecurity-utility-1.0.xsd\">\n    <SOAP-ENV:Header>\n        <wsse:Security SOAP-ENV:actor=\"http://smev.gosuslugi.ru/actors/smev\">\n            <ds:Signature xmlns:ds=\"http://www.w3.org/2000/09/xmldsig#\">\n                <ds:SignedInfo>\n                    <ds:CanonicalizationMethod Algorithm=\"http://www.w3.org/2001/10/xml-exc-c14n#\"/>\n                    <ds:SignatureMethod Algorithm=\"http://www.w3.org/2001/04/xmldsig-more#gostr34102001-gostr3411\"/>\n                    <ds:Reference URI=\"#body\">\n                        <ds:Transforms>\n                            <ds:Transform Algorithm=\"http://www.w3.org/2000/09/xmldsig#enveloped-signature\"/>\n                            <ds:Transform Algorithm=\"http://www.w3.org/2001/10/xml-exc-c14n#\"/>\n                        </ds:Transforms>\n                        <ds:DigestMethod Algorithm=\"http://www.w3.org/2001/04/xmldsig-more#gostr3411\"/>\n                        <ds:DigestValue>dQtAAgcsi2Qr3gIZVmBKAQxRwhYQDIGgfrm2ZkYrF4Y=</ds:DigestValue>\n                    </ds:Reference>\n                </ds:SignedInfo>\n                <ds:SignatureValue>sfLwoDBnx1DonzLifvKUJZno1quOGyPg3OrwfZa3XOrHbF4SB7KE/+wK6lgmAwobZ5K7BG87cjE0\n                    /Bdez9Zx/A==\n                </ds:SignatureValue>\n                <ds:KeyInfo>\n                    <wsse:SecurityTokenReference>\n                        <wsse:Reference URI=\"#SenderCertificate\"/>\n                    </wsse:SecurityTokenReference>\n                </ds:KeyInfo>\n            </ds:Signature>\n            <wsu:Timestamp wsu:Id=\"Timestamp-EB8FBE82C1DF5A56DC13339715438201\">\n                <wsu:Created>2012-04-09T11:39:03Z</wsu:Created>\n                <wsu:Expires>2012-04-09T11:44:03Z</wsu:Expires>\n            </wsu:Timestamp>\n            <wsse:BinarySecurityToken\n                    EncodingType=\"http://docs.oasis-open.org/wss/2004/01/oasis-200401-wss-soap-message-security-1.0#Base64Binary\"\n                    ValueType=\"http://docs.oasis-open.org/wss/2004/01/oasis-200401-wss-x509-token-profile-1.0#X509v3\"\n                    wsu:Id=\"SenderCertificate\">\n                MIIDbzCCAx6gAwIBAgIKT0n0JwAAAAACbzAIBgYqhQMCAgMweTEXMBUGCSqGSIb3DQEJARYIY2FA\n                cnQucnUxCzAJBgNVBAYTAlJVMRUwEwYDVQQHDAzQnNC+0YHQutCy0LAxJDAiBgNVBAoMG9Ce0JDQ\n                niDQoNC+0YHRgtC10LvQtdC60L7QvDEUMBIGA1UEAxMLUlRLIFRlc3QgQ0EwHhcNMTEwNzE0MTEx\n                MzAwWhcNMTIwNzE0MTEyMjAwWjBSMQswCQYDVQQGEwJSVTFDMEEGA1UEAx46BCIENQRBBEIEPgQy\n                BEsEOQAgBEEENQRABEIEOAREBDgEOgQwBEIAIAQkBB0EIQAgBC0EHwAtBB4EEjBjMBwGBiqFAwIC\n                EzASBgcqhQMCAiQABgcqhQMCAh4BA0MABEBoEKpxwOzL7/rR/NzVm6UKW1IUROTXkzzx587jlJPf\n                Qa3PdOMhSVlEZcwEL9+qcJBFkszomWQ+rXmqcCFAHS2+o4IBqzCCAacwCwYDVR0PBAQDAgTwMCYG\n                A1UdJQQfMB0GByqFAwICIgYGCCsGAQUFBwMCBggrBgEFBQcDBDAdBgNVHQ4EFgQUxpxy+ssufWhK\n                y2NS1P/bqZchrGowHwYDVR0jBBgwFoAU3FNp0mLQ2/bwWr2CT1PAxNXwP1cwZgYDVR0fBF8wXTBb\n                oFmgV4ZVaHR0cDovL2QwMHBndWNlcnQwMS4wMC5lZ292LmxvY2FsL3JhL2NkcC9kYzUzNjlkMjYy\n                ZDBkYmY2ZjA1YWJkODI0ZjUzYzBjNGQ1ZjAzZjU3LmNybDCBkwYIKwYBBQUHAQEEgYYwgYMwOwYI\n                KwYBBQUHMAGGL2h0dHA6Ly9kMDBwZ3VjZXJ0MDEuMDAuZWdvdi5sb2NhbC9vY3NwL29jc3Auc3Jm\n                MEQGCCsGAQUFBzAChjhodHRwOi8vZDAwcGd1Y2VydDAxLjAwLmVnb3YubG9jYWwvcmEvY2RwL3Rl\n                c3RfY2FfcnRrLmNydDAyBgkrBgEEAYI3FQoEJTAjMAkGByqFAwICIgYwCgYIKwYBBQUHAwIwCgYI\n                KwYBBQUHAwQwCAYGKoUDAgIDA0EAYEEdhOpMor9QE22T4hUP1jJVnZ9aA0XgsxsjBzjhzfMwAI4g\n                L2YgBUvKQNa+iWVyg8u+BHHGCrVF9GyGXQIuzA==\n            </wsse:BinarySecurityToken>\n        </wsse:Security>\n    </SOAP-ENV:Header>\n    <SOAP-ENV:Body>\n        <getStrictAddressZapros xmlns=\"http://ws.unisoft/\">\n            <smev:Message xmlns:smev=\"http://smev.gosuslugi.ru/rev111111\">\n                <smev:Sender>\n                    <smev:Code>TEST001001</smev:Code>\n                    <smev:Name>Тест</smev:Name>\n                </smev:Sender>\n                <smev:Recipient>\n                    <smev:Code>FNS001001</smev:Code>\n                    <smev:Name>ФНС России</smev:Name>\n                </smev:Recipient>\n                <smev:Originator>\n                    <smev:Code>TEST001001</smev:Code>\n                    <smev:Name>Тест</smev:Name>\n                </smev:Originator>\n                <smev:TypeCode>GSRV</smev:TypeCode>\n                <smev:Status>REQUEST</smev:Status>\n                <smev:Date>2011-11-11T11:11:11Z</smev:Date>\n                <smev:ExchangeType>3</smev:ExchangeType>\n                <smev:TestMsg/>\n            </smev:Message>\n            <smev:MessageData xmlns:smev=\"http://smev.gosuslugi.ru/rev111111\">\n                <smev:AppData>\n                    <Документ xmlns=\"http://ws.unisoft/getAddressZapros\" ВерсФорм=\"1.00\"\n                              ИдДок=\"7CA8688A-162E-449E-9130-C0C51EEB59B7\">\n                        <СвЮЛ ИННЮЛ=\"1234567890\" НаимЮЛ=\"тест\" ОГРН=\"1234567890123\" ОКОГУ=\"00000\"/>\n                        <ЗапросАдрес ИдЗапрос=\"B0CB0F88-73FA-40B6-B737-B8AA0A8BB0AA\">\n                            <ИдФИАС>0C5B2444-70A0-4932-980C-B4DC0D3F02B5</ИдФИАС>\n                        </ЗапросАдрес>\n                    </Документ>\n                </smev:AppData>\n            </smev:MessageData>\n        </getStrictAddressZapros>\n    </SOAP-ENV:Body>\n</SOAP-ENV:Envelope>\n",
					"options": {
						"raw": {
							"language": "xml"
						}
					}
				},
				"url": {
					"raw": "{{ gwUrl }}/strict",
					"host": [
						"{{ gwUrl }}"
					],
					"path": [
						"strict"
					]
				}
			},
			"response": []
		},
		{
			"name": "9. запрос c неизвестным атрибутом Envelope.Body#",
			"event": [
				{
					"listen": "prerequest",
					"script": {
						"exec": [
							"const oidcTokenUrl = pm.environment.get(\"OIDC_TOKEN_URL\");",
							"const authz = pm.variables.get(\"VALID_CLIENT_ID\") + \":\" + pm.variables.get(\"VALID_CLIENT_SECRET\");",
							"const encodedAuthz = CryptoJS.enc.Base64.stringify(CryptoJS.enc.Utf8.parse(authz));",
							"",
							"const getTokenRequest  = {",
							"  url: oidcTokenUrl,",
							"  method: 'POST',",
							"  header: {",
							"        'Accept': '*/*',",
							"        'Content-Type': 'application/x-www-form-urlencoded',",
							"        'Authorization': \"Basic \" + encodedAuthz",
							"  },",
							"  body: {",
							"    mode: 'urlencoded',",
							"    urlencoded: [",
							"        { key: \"grant_type\", value: \"client_credentials\" }",
							"    ]",
							"  }",
							"};",
							"",
							"var getToken = true;",
							"",
							"if (!pm.environment.get('access_token_expiry') || ",
							"    !pm.environment.get('access_token')) {",
							"    console.log('Token or expiry date are missing')",
							"} else if (pm.environment.get('access_token_expiry') <= (new Date()).getTime()) {",
							"    console.log('Token is expired')",
							"} else {",
							"    getToken = false;",
							"    console.log('Token and expiry date are all good');",
							"}",
							"",
							"if (getToken === true) {",
							"    pm.sendRequest(getTokenRequest, function (err, res) {",
							"        if (err === null) {",
							"            const responseJson = res.json();",
							"            console.log('Saving the token and expiry date')",
							"            ",
							"            pm.environment.set('access_token', responseJson.access_token)",
							"            var expiryDate = new Date();",
							"            expiryDate.setSeconds(expiryDate.getSeconds() + responseJson.expires_in)",
							"            pm.environment.set('access_token_expiry', expiryDate.getTime());",
							"        }",
							"        else {",
							"            console.log(err);",
							"        }",
							"    });",
							"}"
						],
						"type": "text/javascript"
					}
				}
			],
			"protocolProfileBehavior": {
				"disabledSystemHeaders": {
					"content-type": true
				}
			},
			"request": {
				"method": "POST",
				"header": [
					{
						"key": "SOAPAction",
						"value": "getStrictAddressZapros",
						"type": "text"
					},
					{
						"key": "Content-Type",
						"value": "text/xml",
						"type": "text"
					},
					{
						"key": "return",
						"value": "5.invalid.missing_attribute.yaml",
						"type": "text",
						"disabled": true
					}
				],
				"body": {
					"mode": "raw",
					"raw": "<SOAP-ENV:Envelope xmlns:SOAP-ENV=\"http://schemas.xmlsoap.org/soap/envelope/\"\n                   xmlns:wsse=\"http://docs.oasis-open.org/wss/2004/01/oasis-200401-wss-wssecurity-secext-1.0.xsd\"\n                   xmlns:wsu=\"http://docs.oasis-open.org/wss/2004/01/oasis-200401-wss-wssecurity-utility-1.0.xsd\">\n    <SOAP-ENV:Body wsu:Id=\"body\">\n        <getStrictAddressZapros xmlns=\"http://ws.unisoft/\">\n            <smev:Message xmlns:smev=\"http://smev.gosuslugi.ru/rev111111\">\n                <smev:Sender>\n                    <smev:Code>TEST001001</smev:Code>\n                    <smev:Name>Тест</smev:Name>\n                </smev:Sender>\n                <smev:Recipient>\n                    <smev:Code>FNS001001</smev:Code>\n                    <smev:Name>ФНС России</smev:Name>\n                </smev:Recipient>\n                <smev:Originator>\n                    <smev:Code>TEST001001</smev:Code>\n                    <smev:Name>Тест</smev:Name>\n                </smev:Originator>\n                <smev:TypeCode>GSRV</smev:TypeCode>\n                <smev:Status>REQUEST</smev:Status>\n                <smev:Date>2011-11-11T11:11:11Z</smev:Date>\n                <smev:ExchangeType>3</smev:ExchangeType>\n                <smev:TestMsg/>\n            </smev:Message>\n            <smev:MessageData xmlns:smev=\"http://smev.gosuslugi.ru/rev111111\">\n                <smev:AppData wsu:Id=\"fns-AppData\">\n                    <Документ xmlns=\"http://ws.unisoft/getAddressZapros\" ВерсФорм=\"1.00\"\n                              ИдДок=\"7CA8688A-162E-449E-9130-C0C51EEB59B7\">\n                        <СвЮЛ ИННЮЛ=\"1234567890\" НаимЮЛ=\"тест\" ОГРН=\"1234567890123\" ОКОГУ=\"00000\"/>\n                        <ЗапросАдрес ИдЗапрос=\"B0CB0F88-73FA-40B6-B737-B8AA0A8BB0AA\">\n                            <ИдФИАС>0C5B2444-70A0-4932-980C-B4DC0D3F02B5</ИдФИАС>\n                        </ЗапросАдрес>\n                    </Документ>\n                </smev:AppData>\n            </smev:MessageData>\n        </getStrictAddressZapros>\n    </SOAP-ENV:Body>\n</SOAP-ENV:Envelope>\n",
					"options": {
						"raw": {
							"language": "xml"
						}
					}
				},
				"url": {
					"raw": "{{ gwUrl }}/strict",
					"host": [
						"{{ gwUrl }}"
					],
					"path": [
						"strict"
					]
				}
			},
			"response": []
		},
		{
			"name": "10. Вызов сгенерированного API",
			"event": [
				{
					"listen": "prerequest",
					"script": {
						"exec": [
							""
						],
						"type": "text/javascript"
					}
				}
			],
			"protocolProfileBehavior": {
				"disabledSystemHeaders": {
					"content-type": true
				}
			},
			"request": {
				"auth": {
					"type": "noauth"
				},
				"method": "POST",
				"header": [
					{
						"key": "SOAPAction",
						"value": "getStrictAddressZapros",
						"type": "text"
					},
					{
						"key": "Content-Type",
						"value": "text/xml",
						"type": "text"
					},
					{
						"key": "return",
						"value": "5.invalid.missing_attribute.yaml",
						"type": "text",
						"disabled": true
					}
				],
				"body": {
					"mode": "raw",
					"raw": "<SOAP-ENV:Envelope xmlns:SOAP-ENV=\"http://schemas.xmlsoap.org/soap/envelope/\">\n    <SOAP-ENV:Body>\n        <getStrictAddressZapros xmlns=\"http://ws.unisoft/\">\n            <smev:Message xmlns:smev=\"http://smev.gosuslugi.ru/rev111111\">\n                <smev:Sender>\n                    <smev:Code>TEST001001</smev:Code>\n                    <smev:Name>Тест</smev:Name>\n                </smev:Sender>\n                <smev:Recipient>\n                    <smev:Code>FNS001001</smev:Code>\n                    <smev:Name>ФНС России</smev:Name>\n                </smev:Recipient>\n                <smev:Originator>\n                    <smev:Code>TEST001001</smev:Code>\n                    <smev:Name>Тест</smev:Name>\n                </smev:Originator>\n                <smev:TypeCode>GSRV</smev:TypeCode>\n                <smev:Status>REQUEST</smev:Status>\n                <smev:Date>2011-11-11T11:11:11Z</smev:Date>\n                <smev:ExchangeType>3</smev:ExchangeType>\n                <smev:TestMsg/>\n            </smev:Message>\n            <smev:MessageData xmlns:smev=\"http://smev.gosuslugi.ru/rev111111\">\n                <smev:AppData>\n                    <Документ xmlns=\"http://ws.unisoft/getAddressZapros\" ВерсФорм=\"1.00\"\n                              ИдДок=\"7CA8688A-162E-449E-9130-C0C51EEB59B7\">\n                        <СвЮЛ ИННЮЛ=\"1234567890\" НаимЮЛ=\"тест\" ОГРН=\"1234567890123\" ОКОГУ=\"00000\"/>\n                        <ЗапросАдрес ИдЗапрос=\"B0CB0F88-73FA-40B6-B737-B8AA0A8BB0AA\">\n                            <ИдФИАС>0C5B2444-70A0-4932-980C-B4DC0D3F02B5</ИдФИАС>\n                        </ЗапросАдрес>\n                    </Документ>\n                </smev:AppData>\n            </smev:MessageData>\n        </getStrictAddressZapros>\n    </SOAP-ENV:Body>\n</SOAP-ENV:Envelope>\n",
					"options": {
						"raw": {
							"language": "xml"
						}
					}
				},
				"url": {
					"raw": "{{ gwUrl }}/abc",
					"host": [
						"{{ gwUrl }}"
					],
					"path": [
						"abc"
					]
				}
			},
			"response": []
		}
	],
	"auth": {
		"type": "bearer",
		"bearer": [
			{
				"key": "token",
				"value": "{{access_token}}",
				"type": "string"
			}
		]
	},
	"event": [
		{
			"listen": "prerequest",
			"script": {
				"type": "text/javascript",
				"exec": [
					""
				]
			}
		},
		{
			"listen": "test",
			"script": {
				"type": "text/javascript",
				"exec": [
					""
				]
			}
		}
	]
}