module github.com/rshlin/smev_cli

go 1.18

require (
	github.com/TykTechnologies/tyk v1.9.2-0.20220819105728-4d7f77afb22f
	github.com/gosimple/slug v1.13.1
	github.com/jensneuse/graphql-go-tools v1.20.2
	github.com/lestrrat-go/libxml2 v0.0.0-20201123224832-e6d9de61b80d
	github.com/pkg/errors v0.9.1
	github.com/rshlin/smev_core v1.2.3
	github.com/satori/go.uuid v1.2.0
	github.com/spf13/cobra v1.6.0
	gopkg.in/mgo.v2 v2.0.0-20190816093944-a6b53ec6cb22
)

require (
	github.com/Masterminds/goutils v1.1.1 // indirect
	github.com/Masterminds/semver v1.5.0 // indirect
	github.com/Masterminds/sprig v2.22.0+incompatible // indirect
	github.com/Shopify/sarama v1.29.1 // indirect
	github.com/TykTechnologies/gojsonschema v0.0.0-20170222154038-dcb3e4bb7990 // indirect
	github.com/TykTechnologies/graphql-go-tools v1.6.2-0.20220811124354-8d1f142966f8 // indirect
	github.com/buger/jsonparser v1.1.1 // indirect
	github.com/cespare/xxhash v1.1.0 // indirect
	github.com/cespare/xxhash/v2 v2.1.2 // indirect
	github.com/clbanning/mxj v1.8.4 // indirect
	github.com/cpuguy83/go-md2man/v2 v2.0.2 // indirect
	github.com/davecgh/go-spew v1.1.1 // indirect
	github.com/eapache/go-resiliency v1.2.0 // indirect
	github.com/eapache/go-xerial-snappy v0.0.0-20180814174437-776d5712da21 // indirect
	github.com/eapache/queue v1.1.0 // indirect
	github.com/eclipse/paho.mqtt.golang v1.2.0 // indirect
	github.com/getkin/kin-openapi v0.89.0 // indirect
	github.com/ghodss/yaml v1.0.0 // indirect
	github.com/go-openapi/jsonpointer v0.19.5 // indirect
	github.com/go-openapi/swag v0.19.5 // indirect
	github.com/golang/snappy v0.0.3 // indirect
	github.com/google/uuid v1.3.0 // indirect
	github.com/gosimple/unidecode v1.0.1 // indirect
	github.com/hashicorp/errwrap v1.0.0 // indirect
	github.com/hashicorp/go-multierror v1.1.1 // indirect
	github.com/hashicorp/go-uuid v1.0.2 // indirect
	github.com/hashicorp/go-version v1.4.0 // indirect
	github.com/huandu/xstrings v1.3.2 // indirect
	github.com/imdario/mergo v0.3.12 // indirect
	github.com/inconshreveable/mousetrap v1.0.1 // indirect
	github.com/jcmturner/aescts/v2 v2.0.0 // indirect
	github.com/jcmturner/dnsutils/v2 v2.0.0 // indirect
	github.com/jcmturner/gofork v1.0.0 // indirect
	github.com/jcmturner/gokrb5/v8 v8.4.2 // indirect
	github.com/jcmturner/rpc/v2 v2.0.3 // indirect
	github.com/jensneuse/abstractlogger v0.0.4 // indirect
	github.com/jensneuse/byte-template v0.0.0-20200214152254-4f3cf06e5c68 // indirect
	github.com/jensneuse/pipeline v0.0.0-20200117120358-9fb4de085cd6 // indirect
	github.com/josharian/intern v1.0.0 // indirect
	github.com/klauspost/compress v1.12.2 // indirect
	github.com/lonelycode/go-uuid v0.0.0-20141202165402-ed3ca8a15a93 // indirect
	github.com/lonelycode/osin v0.0.0-20160423095202-da239c9dacb6 // indirect
	github.com/mailru/easyjson v0.7.7 // indirect
	github.com/mattn/go-colorable v0.1.8 // indirect
	github.com/mattn/go-isatty v0.0.12 // indirect
	github.com/mgutz/ansi v0.0.0-20170206155736-9520e82c474b // indirect
	github.com/mitchellh/copystructure v1.2.0 // indirect
	github.com/mitchellh/reflectwalk v1.0.2 // indirect
	github.com/nats-io/nats.go v1.11.1-0.20210623165838-4b75fc59ae30 // indirect
	github.com/nats-io/nkeys v0.3.0 // indirect
	github.com/nats-io/nuid v1.0.1 // indirect
	github.com/pierrec/lz4 v2.6.0+incompatible // indirect
	github.com/pmylund/go-cache v2.1.0+incompatible // indirect
	github.com/qri-io/jsonpointer v0.1.1 // indirect
	github.com/qri-io/jsonschema v0.2.1 // indirect
	github.com/rcrowley/go-metrics v0.0.0-20201227073835-cf1acfcdf475 // indirect
	github.com/russross/blackfriday/v2 v2.1.0 // indirect
	github.com/sirupsen/logrus v1.8.1 // indirect
	github.com/spf13/pflag v1.0.5 // indirect
	github.com/tidwall/gjson v1.11.0 // indirect
	github.com/tidwall/match v1.1.1 // indirect
	github.com/tidwall/pretty v1.2.0 // indirect
	github.com/tidwall/sjson v1.0.4 // indirect
	github.com/x-cray/logrus-prefixed-formatter v0.5.2 // indirect
	github.com/xeipuuv/gojsonpointer v0.0.0-20190905194746-02993c407bfb // indirect
	github.com/xeipuuv/gojsonreference v0.0.0-20180127040603-bd5ef7bd5415 // indirect
	github.com/xeipuuv/gojsonschema v1.2.0 // indirect
	go.uber.org/atomic v1.9.0 // indirect
	go.uber.org/multierr v1.6.0 // indirect
	go.uber.org/zap v1.18.1 // indirect
	golang.org/x/crypto v0.0.0-20220214200702-86341886e292 // indirect
	golang.org/x/net v0.0.0-20220127200216-cd36cc0744dd // indirect
	golang.org/x/sys v0.0.0-20220405210540-1e041c57c461 // indirect
	golang.org/x/term v0.0.0-20210927222741-03fcf44c2211 // indirect
	golang.org/x/xerrors v0.0.0-20200804184101-5ec99f83aff1 // indirect
	gopkg.in/yaml.v2 v2.4.0 // indirect
	gopkg.in/yaml.v3 v3.0.1 // indirect
)

replace github.com/rshlin/smev_core => ./../smev_core
